^C:\USERS\DANIEL HÄGGMYR\DOCUMENTS\VISUAL STUDIO 2013\PROJECTS\ROBOTBIL\ROBOTBIL\SOURCE.CPP
/c /ZI /nologo /W3 /WX- /sdl /Od /Oy- /D _MBCS /Gm /EHsc /RTC1 /MDd /GS /fp:precise /Zc:wchar_t /Zc:forScope /Fo"DEBUG\\" /Fd"DEBUG\VC120.PDB" /Gd /TP /analyze- C:\USERS\DANIEL HÄGGMYR\DOCUMENTS\VISUAL STUDIO 2013\PROJECTS\ROBOTBIL\ROBOTBIL\SOURCE.CPP
^C:\USERS\DANIEL HÄGGMYR\DOCUMENTS\VISUAL STUDIO 2013\PROJECTS\ROBOTBIL\ROBOTBIL\MAIN.CPP
/c /ZI /nologo /W3 /WX- /sdl /Od /Oy- /D _MBCS /Gm /EHsc /RTC1 /MDd /GS /fp:precise /Zc:wchar_t /Zc:forScope /Fo"DEBUG\\" /Fd"DEBUG\VC120.PDB" /Gd /TP /analyze- C:\USERS\DANIEL HÄGGMYR\DOCUMENTS\VISUAL STUDIO 2013\PROJECTS\ROBOTBIL\ROBOTBIL\MAIN.CPP
^C:\USERS\DANIEL HÄGGMYR\DOCUMENTS\VISUAL STUDIO 2013\PROJECTS\ROBOTBIL\ROBOTBIL\NETWORKCOMM.CPP
/c /ZI /nologo /W3 /WX- /sdl /Od /Oy- /D _MBCS /Gm /EHsc /RTC1 /MDd /GS /fp:precise /Zc:wchar_t /Zc:forScope /Fo"DEBUG\\" /Fd"DEBUG\VC120.PDB" /Gd /TP /analyze- C:\USERS\DANIEL HÄGGMYR\DOCUMENTS\VISUAL STUDIO 2013\PROJECTS\ROBOTBIL\ROBOTBIL\NETWORKCOMM.CPP
