^C:\USERS\DANIEL HÄGGMYR\DOCUMENTS\VISUAL STUDIO 2013\PROJECTS\ROBOTBIL\ROBOTBIL\SOURCE.CPP
C:\USERS\DANIEL HäGGMYR\DOCUMENTS\VISUAL STUDIO 2013\PROJECTS\ROBOTBIL\ROBOTBIL\DEBUG\VC120.PDB
C:\USERS\DANIEL HäGGMYR\DOCUMENTS\VISUAL STUDIO 2013\PROJECTS\ROBOTBIL\ROBOTBIL\DEBUG\VC120.IDB
C:\USERS\DANIEL HäGGMYR\DOCUMENTS\VISUAL STUDIO 2013\PROJECTS\ROBOTBIL\ROBOTBIL\DEBUG\SOURCE.OBJ
^C:\USERS\DANIEL HÄGGMYR\DOCUMENTS\VISUAL STUDIO 2013\PROJECTS\ROBOTBIL\ROBOTBIL\MAIN.CPP|C:\USERS\DANIEL HÄGGMYR\DOCUMENTS\VISUAL STUDIO 2013\PROJECTS\ROBOTBIL\ROBOTBIL\NETWORKCOMM.CPP
C:\USERS\DANIEL HäGGMYR\DOCUMENTS\VISUAL STUDIO 2013\PROJECTS\ROBOTBIL\ROBOTBIL\DEBUG\VC120.PDB
C:\USERS\DANIEL HäGGMYR\DOCUMENTS\VISUAL STUDIO 2013\PROJECTS\ROBOTBIL\ROBOTBIL\DEBUG\VC120.IDB
C:\USERS\DANIEL HäGGMYR\DOCUMENTS\VISUAL STUDIO 2013\PROJECTS\ROBOTBIL\ROBOTBIL\DEBUG\NETWORKCOMM.OBJ
^C:\USERS\DANIEL HÄGGMYR\DOCUMENTS\VISUAL STUDIO 2013\PROJECTS\ROBOTBIL\ROBOTBIL\MAIN.CPP
C:\USERS\DANIEL HÄGGMYR\DOCUMENTS\VISUAL STUDIO 2013\PROJECTS\ROBOTBIL\ROBOTBIL\DEBUG\VC120.PDB
C:\USERS\DANIEL HäGGMYR\DOCUMENTS\VISUAL STUDIO 2013\PROJECTS\ROBOTBIL\ROBOTBIL\DEBUG\VC120.IDB
^C:\USERS\DANIEL HÄGGMYR\DOCUMENTS\VISUAL STUDIO 2013\PROJECTS\ROBOTBIL\ROBOTBIL\NETWORKCOMM.CPP
C:\USERS\DANIEL HÄGGMYR\DOCUMENTS\VISUAL STUDIO 2013\PROJECTS\ROBOTBIL\ROBOTBIL\DEBUG\VC120.PDB
C:\USERS\DANIEL HäGGMYR\DOCUMENTS\VISUAL STUDIO 2013\PROJECTS\ROBOTBIL\ROBOTBIL\DEBUG\VC120.IDB
C:\USERS\DANIEL HäGGMYR\DOCUMENTS\VISUAL STUDIO 2013\PROJECTS\ROBOTBIL\ROBOTBIL\DEBUG\NETWORKCOMM.OBJ
