^C:\USERS\DANIEL HÄGGMYR\DOCUMENTS\VISUAL STUDIO 2013\PROJECTS\ROBOTBIL\ROBOTBIL\MAIN.CPP|C:\USERS\DANIEL HÄGGMYR\DOCUMENTS\VISUAL STUDIO 2013\PROJECTS\ROBOTBIL\ROBOTBIL\NETWORKCOMM.CPP
C:\USERS\DANIEL HäGGMYR\DOCUMENTS\VISUAL STUDIO 2013\PROJECTS\ROBOTBIL\ROBOTBIL\RELEASE\VC120.PDB
C:\USERS\DANIEL HäGGMYR\DOCUMENTS\VISUAL STUDIO 2013\PROJECTS\ROBOTBIL\ROBOTBIL\RELEASE\NETWORKCOMM.OBJ
C:\USERS\DANIEL HäGGMYR\DOCUMENTS\VISUAL STUDIO 2013\PROJECTS\ROBOTBIL\ROBOTBIL\RELEASE\MAIN.OBJ
^C:\USERS\DANIEL HÄGGMYR\DOCUMENTS\VISUAL STUDIO 2013\PROJECTS\ROBOTBIL\ROBOTBIL\NETWORKCOMM.CPP
C:\USERS\DANIEL HÄGGMYR\DOCUMENTS\VISUAL STUDIO 2013\PROJECTS\ROBOTBIL\ROBOTBIL\RELEASE\VC120.PDB
^C:\USERS\DANIEL HÄGGMYR\DOCUMENTS\VISUAL STUDIO 2013\PROJECTS\ROBOTBIL\ROBOTBIL\MAIN.CPP
C:\USERS\DANIEL HäGGMYR\DOCUMENTS\VISUAL STUDIO 2013\PROJECTS\ROBOTBIL\ROBOTBIL\RELEASE\VC120.PDB
C:\USERS\DANIEL HäGGMYR\DOCUMENTS\VISUAL STUDIO 2013\PROJECTS\ROBOTBIL\ROBOTBIL\RELEASE\MAIN.OBJ
